{
  "Comment.nvim": { "branch": "master", "commit": "0236521ea582747b58869cb72f70ccfa967d2e89" },
  "LuaSnip": { "branch": "master", "commit": "de1a287c9cb525ae52bc846e8f6207e5ef1da5ac" },
  "autoclose.nvim": { "branch": "main", "commit": "dc42806540dcf448ecb2bad6b67204410cfbe629" },
  "bufferline.nvim": { "branch": "main", "commit": "73edc1f2732678e7a681e3d3be49782610914f6b" },
  "cmp-nvim-lsp": { "branch": "main", "commit": "39e2eda76828d88b773cc27a3f61d2ad782c922d" },
  "cmp_luasnip": { "branch": "master", "commit": "05a9ab28b53f71d1aece421ef32fee2cb857a843" },
  "conform.nvim": { "branch": "master", "commit": "0d12c3781384d63909431297ed1a0f383008bb8f" },
  "crates.nvim": { "branch": "main", "commit": "8437522d12a8c523da2aee9db2979d070b2ecc33" },
  "fidget.nvim": { "branch": "main", "commit": "ef99df04a1c53a453602421bc0f756997edc8289" },
  "flutter-tools.nvim": { "branch": "main", "commit": "990a1349c29f7d474a0cd51355aba773ccc9deea" },
  "gitsigns.nvim": { "branch": "main", "commit": "cdfcd9d39d23c46ae9a040de2c6a8b8bf868746e" },
  "hologram.nvim": { "branch": "main", "commit": "f5194f71ec1578d91b2e3119ff08e574e2eab542" },
  "lsp-overloads.nvim": { "branch": "main", "commit": "be3486a501fdda84ea91a0949178b75e8476030d" },
  "lsp-zero.nvim": { "branch": "v3.x", "commit": "f12d50716e8e59ea9f5cf484eac6968c33a95917" },
  "lualine.nvim": { "branch": "master", "commit": "0a5a66803c7407767b799067986b4dc3036e1983" },
  "mason-lspconfig.nvim": { "branch": "main", "commit": "a4caa0d083aab56f6cd5acf2d42331b74614a585" },
  "mason.nvim": { "branch": "main", "commit": "49ff59aded1047a773670651cfa40e76e63c6377" },
  "neodev.nvim": { "branch": "main", "commit": "ce9a2e8eaba5649b553529c5498acb43a6c317cd" },
  "nvim-cmp": { "branch": "main", "commit": "5260e5e8ecadaf13e6b82cf867a909f54e15fd07" },
  "nvim-lspconfig": { "branch": "master", "commit": "b972e7154bc94ab4ecdbb38c8edbccac36f83996" },
  "nvim-silicon": { "branch": "main", "commit": "ab664633e5090809da7470288404fe5b8735a8c8" },
  "nvim-surround": { "branch": "main", "commit": "79aaa42da1f698ed31bcbe7f83081f69dca7ba17" },
  "nvim-treesitter": { "branch": "master", "commit": "298a9dd4f8a0d95b347a7ebd301849d8b0e3917e" },
  "nvim-web-devicons": { "branch": "master", "commit": "e37bb1feee9e7320c76050a55443fa843b4b6f83" },
  "nvim-yarp": { "branch": "master", "commit": "bb5f5e038bfe119d3b777845a76b0b919b35ebc8" },
  "plenary.nvim": { "branch": "master", "commit": "a3e3bc82a3f95c5ed0d7201546d5d2c19b20d683" },
  "popup.nvim": { "branch": "master", "commit": "b7404d35d5d3548a82149238289fa71f7f6de4ac" },
  "presence.nvim": { "branch": "main", "commit": "a5dfc0f4786d72fc2d6c8c77e0e9437937470fb5" },
  "telescope-media-files.nvim": { "branch": "master", "commit": "0826c7a730bc4d36068f7c85cf4c5b3fd9fb570a" },
  "telescope-ui-select.nvim": { "branch": "master", "commit": "6e51d7da30bd139a6950adf2a47fda6df9fa06d2" },
  "telescope.nvim": { "branch": "master", "commit": "6312868392331c9c0f22725041f1ec2bef57c751" },
  "toggleterm.nvim": { "branch": "main", "commit": "fee58a0473fd92b28c34f8f724e4918b15ba30a3" },
  "tokyonight.nvim": { "branch": "main", "commit": "b9b494fa7f7bbf2fe0747b47fa290fb7a4eddcc7" },
  "vim-hug-neovim-rpc": { "branch": "master", "commit": "93ae38792bc197c3bdffa2716ae493c67a5e7957" },
  "vimspector": { "branch": "master", "commit": "c37d50fc463013bdad2ba044615b0bc2ce163681" },
  "wilder.nvim": { "branch": "master", "commit": "679f348dc90d80ff9ba0e7c470c40a4d038dcecf" }
}